Final Individual Report - Connecticut Education – Minimum Viable Blog
…
i Creating pre-processing data to finalize unknown parameter: mtry

Code

rf_res %>%
  collect_predictions()

# A tibble: 204,500 × 9
   .pred_high .pred_low .pred_medium id      .row  mtry min_n price_tier .config
        <dbl>     <dbl>        <dbl> <chr>  <int> <int> <int> <fct>      <chr>  
 1      0.419    0.201         0.380 valid…     7     1     4 high       Prepro…
 2      0.572    0.0999        0.328 valid…    14     1     4 high       Prepro…
 3      0.543    0.111         0.346 valid…    16     1     4 high       Prepro…
 4      0.428    0.209         0.363 valid…    22     1     4 high       Prepro…
 5      0.517    0.0853        0.398 valid…    24     1     4 high       Prepro…
 6      0.531    0.0926        0.376 valid…    31     1     4 high       Prepro…
 7      0.164    0.548         0.288 valid…    40     1     4 high       Prepro…
 8      0.205    0.510         0.286 valid…    41     1     4 high       Prepro…
 9      0.661    0.0863        0.252 valid…    46     1     4 high       Prepro…
10      0.635    0.0753        0.290 valid…    49     1     4 high       Prepro…
# ℹ 204,490 more rows
…
i Creating pre-processing data to finalize unknown parameter: mtry

Code

rf_res %>%
  collect_predictions()

# A tibble: 37,000 × 9
   .pred_high .pred_low .pred_medium id      .row  mtry min_n price_tier .config
        <dbl>     <dbl>        <dbl> <chr>  <int> <int> <int> <fct>      <chr>  
 1      0.385    0.325        0.290  valid…     2     1     4 high       Prepro…
 2      0.290    0.149        0.561  valid…    19     1     4 high       Prepro…
 3      0.371    0.229        0.399  valid…    20     1     4 high       Prepro…
 4      0.284    0.197        0.519  valid…    37     1     4 high       Prepro…
 5      0.448    0.248        0.304  valid…    39     1     4 high       Prepro…
 6      0.272    0.397        0.332  valid…    51     1     4 high       Prepro…
 7      0.169    0.553        0.278  valid…    52     1     4 high       Prepro…
 8      0.728    0.0506       0.221  valid…    67     1     4 high       Prepro…
 9      0.535    0.121        0.344  valid…    70     1     4 high       Prepro…
10      0.903    0.0290       0.0681 valid…    73     1     4 high       Prepro…
# ℹ 36,990 more rows
…
